\relax 
\providecommand\hyper@newdestlabel[2]{}
\providecommand\zref@newlabel[2]{}
\providecommand\HyperFirstAtBeginDocument{\AtBeginDocument}
\HyperFirstAtBeginDocument{\ifx\hyper@anchor\@undefined
\global\let\oldcontentsline\contentsline
\gdef\contentsline#1#2#3#4{\oldcontentsline{#1}{#2}{#3}}
\global\let\oldnewlabel\newlabel
\gdef\newlabel#1#2{\newlabelxx{#1}#2}
\gdef\newlabelxx#1#2#3#4#5#6{\oldnewlabel{#1}{{#2}{#3}}}
\AtEndDocument{\ifx\hyper@anchor\@undefined
\let\contentsline\oldcontentsline
\let\newlabel\oldnewlabel
\fi}
\fi}
\global\let\hyper@last\relax 
\gdef\HyperFirstAtBeginDocument#1{#1}
\providecommand\HyField@AuxAddToFields[1]{}
\providecommand\HyField@AuxAddToCoFields[2]{}
\providecommand\@newglossary[4]{}
\@newglossary{main}{glg}{gls}{glo}
\providecommand\@glsorder[1]{}
\providecommand\@istfilename[1]{}
\@istfilename{msc-thesis.xdy}
\@glsorder{word}
\@writefile{toc}{\contentsline {part}{I\hspace  {1em}Introduction}{1}{part.1}}
\citation{gantz2014}
\citation{gantz2014}
\citation{ingham2002}
\citation{abuhmed2007}
\citation{dharmapurikar2003,yu2006,parsons2012}
\newlabel{part-introduction}{{I}{2}{Introduction}{part.1}{}}
\@writefile{toc}{\contentsline {chapter}{\numberline {1}Introduction}{2}{chapter.1}}
\@writefile{lof}{\addvspace {10\p@ }}
\@writefile{lot}{\addvspace {10\p@ }}
\newlabel{chapter-introduction}{{1}{2}{Introduction}{chapter.1}{}}
\citation{parsons2012}
\citation{parsons2012}
\citation{paloalto2016}
\citation{dharmapurikar2003,kumar2006}
\citation{grondman2006,splunder2015}
\citation{splunder2015}
\citation{eisenmann2009}
\citation{eisenmann2009}
\@writefile{toc}{\contentsline {section}{\numberline {1.1}Problem Statement}{3}{section.1.1}}
\newlabel{section-problemstatement}{{1.1}{3}{Problem Statement}{section.1.1}{}}
\citation{abuhmed2007,sourdis2007,chaudhary2011}
\citation{abuhmed2007}
\citation{crochemore2002,lecroq2007,faro2013}
\@writefile{toc}{\contentsline {section}{\numberline {1.2}Research Outline}{5}{section.1.2}}
\newlabel{section-researchoutline}{{1.2}{5}{Research Outline}{section.1.2}{}}
\@writefile{toc}{\contentsline {section}{\numberline {1.3}Research Method}{5}{section.1.3}}
\newlabel{section-researchmethod}{{1.3}{5}{Research Method}{section.1.3}{}}
\citation{aschenbrenner1986}
\@writefile{toc}{\contentsline {section}{\numberline {1.4}Document Conventions}{6}{section.1.4}}
\newlabel{section-documentconventions}{{1.4}{6}{Document Conventions}{section.1.4}{}}
\@writefile{toc}{\contentsline {section}{\numberline {1.5}Document Structure}{6}{section.1.5}}
\newlabel{section-documentstructure}{{1.5}{6}{Document Structure}{section.1.5}{}}
\citation{hauben2006}
\citation{leiner2009}
\citation{metcalf2014}
\citation{metcalf2014}
\citation{ward2001}
\citation{metcalf2014}
\@writefile{toc}{\contentsline {chapter}{\numberline {2}Literature Review}{8}{chapter.2}}
\@writefile{lof}{\addvspace {10\p@ }}
\@writefile{lot}{\addvspace {10\p@ }}
\newlabel{chapter-literaturereview}{{2}{8}{Literature Review}{chapter.2}{}}
\@writefile{toc}{\contentsline {section}{\numberline {2.1}General Network Security}{8}{section.2.1}}
\newlabel{section-generalnetworksecurity}{{2.1}{8}{General Network Security}{section.2.1}{}}
\citation{stoll1989,wuermeling1989}
\citation{stoll1989,wuermeling1989}
\citation{stoll1989}
\citation{gardner1989}
\citation{eisenberg1989,spafford1989a}
\citation{spafford1989b,denning1989}
\citation{aschenbrenner1986}
\citation{perrin2008}
\citation{perrin2008}
\citation{perrin2008}
\citation{stoll1989}
\citation{dowd1998}
\@writefile{toc}{\contentsline {subsection}{\numberline {2.1.1}Network Security Tenets}{10}{subsection.2.1.1}}
\newlabel{subsection-networksecuritytenets}{{2.1.1}{10}{Network Security Tenets}{subsection.2.1.1}{}}
\citation{adeyinka2008}
\citation{ferguson2000}
\@writefile{toc}{\contentsline {subsection}{\numberline {2.1.2}Common Network Security Threats}{11}{subsection.2.1.2}}
\newlabel{subsection-commonnetworksecuritythreats}{{2.1.2}{11}{Common Network Security Threats}{subsection.2.1.2}{}}
\citation{adeyinka2008}
\@writefile{toc}{\contentsline {subsection}{\numberline {2.1.3}Network Threat Mitigation Techniques}{12}{subsection.2.1.3}}
\newlabel{subsection-networkthreatmitigationtechniques}{{2.1.3}{12}{Network Threat Mitigation Techniques}{subsection.2.1.3}{}}
\citation{rouse2011}
\@writefile{toc}{\contentsline {subsection}{\numberline {2.1.4}Summary}{13}{subsection.2.1.4}}
\newlabel{subsection-networksecuritysummary}{{2.1.4}{13}{Summary}{subsection.2.1.4}{}}
\citation{oxford2016}
\citation{zwicky2000}
\citation{ingham2002}
\citation{avolio1999}
\citation{ingham2002}
\citation{ingham2002}
\citation{aschenbrenner1986}
\citation{zwicky2000}
\@writefile{toc}{\contentsline {section}{\numberline {2.2}Firewalls}{14}{section.2.2}}
\newlabel{section-firewalls}{{2.2}{14}{Firewalls}{section.2.2}{}}
\citation{ingham2002}
\citation{mogul1989}
\citation{ranum1992}
\@writefile{toc}{\contentsline {subsection}{\numberline {2.2.1}Layer 7 - Application Layer}{16}{subsection.2.2.1}}
\newlabel{subsection-applicationlayer}{{2.2.1}{16}{Layer 7 - Application Layer}{subsection.2.2.1}{}}
\citation{ingham2002}
\citation{cheswick1990}
\citation{koblas1992}
\citation{postel1981}
\citation{deering1998}
\citation{ingham2002,chaudhary2011}
\@writefile{lof}{\contentsline {figure}{\numberline {2.1}{\ignorespaces An example of application-layer proxies\relax }}{17}{figure.caption.5}}
\providecommand*\caption@xref[2]{\@setref\relax\@undefined{#1}}
\newlabel{figure-applicationlayerproxies}{{2.1}{17}{An example of application-layer proxies\relax }{figure.caption.5}{}}
\@writefile{toc}{\contentsline {subsection}{\numberline {2.2.2}Layer 4 - Transport Layer}{17}{subsection.2.2.2}}
\newlabel{subsection-transportlayer}{{2.2.2}{17}{Layer 4 - Transport Layer}{subsection.2.2.2}{}}
\citation{corbridge1991}
\citation{shaer2003}
\citation{ingham2002}
\citation{ingham2002}
\@writefile{toc}{\contentsline {subsection}{\numberline {2.2.3}Layer 3 - Network Layer}{18}{subsection.2.2.3}}
\citation{ingham2002}
\citation{egevang1994}
\citation{chatel1996}
\@writefile{toc}{\contentsline {subsection}{\numberline {2.2.4}Network Address Translation}{19}{subsection.2.2.4}}
\newlabel{subsection-networkaddresstranslation}{{2.2.4}{19}{Network Address Translation}{subsection.2.2.4}{}}
\@writefile{toc}{\contentsline {subsection}{\numberline {2.2.5}Other Firewalling Techniques}{19}{subsection.2.2.5}}
\newlabel{subsection-otherfirewallingtechniques}{{2.2.5}{19}{Other Firewalling Techniques}{subsection.2.2.5}{}}
\citation{handley2001}
\citation{shankar2003}
\citation{handley2001}
\@writefile{toc}{\contentsline {subsection}{\numberline {2.2.6}Denial of Service}{20}{subsection.2.2.6}}
\newlabel{subsection-denialofservice}{{2.2.6}{20}{Denial of Service}{subsection.2.2.6}{}}
\citation{cheswick1990}
\citation{kemmerer2002,ashoor2011}
\citation{kemmerer2002}
\citation{ashoor2011}
\@writefile{toc}{\contentsline {subsection}{\numberline {2.2.7}Shortfalls}{21}{subsection.2.2.7}}
\newlabel{subsection-shortfalls}{{2.2.7}{21}{Shortfalls}{subsection.2.2.7}{}}
\@writefile{toc}{\contentsline {subsection}{\numberline {2.2.8}Summary}{21}{subsection.2.2.8}}
\newlabel{subsection-firewallssummary}{{2.2.8}{21}{Summary}{subsection.2.2.8}{}}
\@writefile{toc}{\contentsline {section}{\numberline {2.3}Intrusion Detection Systems}{21}{section.2.3}}
\newlabel{section-intrusiondetectionsystems}{{2.3}{21}{Intrusion Detection Systems}{section.2.3}{}}
\citation{kemmerer2002}
\citation{kemmerer2002}
\citation{anderson1980}
\citation{anderson1980}
\citation{sourdis2007}
\citation{sourdis2007}
\citation{sourdis2007}
\citation{kemmerer2002}
\citation{kemmerer2002}
\@writefile{lof}{\contentsline {figure}{\numberline {2.2}{\ignorespaces A traditional network setup with a firewall at the network edge and the Intrusion Detection System behind it.\relax }}{23}{figure.caption.6}}
\newlabel{figure-traditional-firewall-and-ids}{{2.2}{23}{A traditional network setup with a firewall at the network edge and the Intrusion Detection System behind it.\relax }{figure.caption.6}{}}
\citation{denning1987,ghosh1998,chandola2009}
\citation{anderson1980}
\citation{kemmerer2002}
\citation{kemmerer2002}
\@writefile{lof}{\contentsline {figure}{\numberline {2.3}{\ignorespaces A typical network IDS}}{24}{figure.caption.7}}
\newlabel{figure-intrusiondetectionsystem}{{2.3}{24}{A typical network IDS}{figure.caption.7}{}}
\newlabel{footnote-snort}{{12}{24}{}{Hfootnote.17}{}}
\@writefile{toc}{\contentsline {subsection}{\numberline {2.3.1}IDS Rules}{25}{subsection.2.3.1}}
\newlabel{subsection-idsrules}{{2.3.1}{25}{IDS Rules}{subsection.2.3.1}{}}
\newlabel{listing-snortrulestructure}{{2.1}{25}{Snort rule structure}{lstlisting.2.1}{}}
\@writefile{lol}{\contentsline {lstlisting}{\numberline {2.1}Snort rule structure}{25}{lstlisting.2.1}}
\@writefile{lot}{\contentsline {table}{\numberline {2.1}{\ignorespaces Snort's rule structure breakdown\relax }}{25}{table.caption.8}}
\newlabel{table-snortrulestructure}{{2.1}{25}{Snort's rule structure breakdown\relax }{table.caption.8}{}}
\citation{sourdis2007}
\citation{sourdis2007}
\citation{kemmerer2002}
\newlabel{listing-simplesnortrule}{{2.2}{26}{A very simple working Snort rule}{lstlisting.2.2}{}}
\@writefile{lol}{\contentsline {lstlisting}{\numberline {2.2}A very simple working Snort rule}{26}{lstlisting.2.2}}
\newlabel{listing-staticpatternandregularexpression}{{2.3}{26}{Snort rule featuring a static pattern and a regular expression}{lstlisting.2.3}{}}
\@writefile{lol}{\contentsline {lstlisting}{\numberline {2.3}Snort rule featuring a static pattern and a regular expression}{26}{lstlisting.2.3}}
\@writefile{toc}{\contentsline {subsection}{\numberline {2.3.2}Effectiveness}{26}{subsection.2.3.2}}
\citation{schuff2007}
\citation{schuff2007}
\citation{schuff2007}
\citation{sourdis2007}
\citation{sourdis2007}
\@writefile{toc}{\contentsline {subsection}{\numberline {2.3.3}Performance}{27}{subsection.2.3.3}}
\newlabel{subsection-performance}{{2.3.3}{27}{Performance}{subsection.2.3.3}{}}
\@writefile{lof}{\contentsline {figure}{\numberline {2.4}{\ignorespaces Snort processing time broken down by group}}{27}{figure.caption.9}}
\newlabel{figure-snortprocessingbreakdown}{{2.4}{27}{Snort processing time broken down by group}{figure.caption.9}{}}
\citation{sourdis2007}
\citation{sourdis2007}
\citation{shah2001,sourdis2007,becchi2009,jiang2009}
\@writefile{toc}{\contentsline {subsubsection}{Implementation}{28}{section*.10}}
\newlabel{subsubsection-implementation}{{2.3.3}{28}{Implementation}{section*.10}{}}
\@writefile{lof}{\contentsline {figure}{\numberline {2.5}{\ignorespaces A comparison of the broad categories of IDSs available.}}{28}{figure.caption.11}}
\newlabel{figure-idstypes}{{2.5}{28}{A comparison of the broad categories of IDSs available}{figure.caption.11}{}}
\citation{sourdis2007}
\citation{shah2001}
\citation{sourdis2007}
\citation{shah2001}
\citation{shah2001}
\citation{yu2006}
\citation{kemmerer2002}
\citation{zwicky2000}
\citation{kemmerer2002}
\citation{ingham2002}
\@writefile{toc}{\contentsline {section}{\numberline {2.4}Packet Inspection}{30}{section.2.4}}
\newlabel{section-packetinspection}{{2.4}{30}{Packet Inspection}{section.2.4}{}}
\citation{koblas1992}
\citation{ingham2002}
\citation{ingham2002}
\citation{shaer2003}
\citation{ingham2002}
\citation{mogul1989}
\citation{ranum1992}
\citation{parsons2009}
\@writefile{toc}{\contentsline {subsection}{\numberline {2.4.1}Shallow Packet Inspection}{31}{subsection.2.4.1}}
\newlabel{subsection-shallowpacketinspection}{{2.4.1}{31}{Shallow Packet Inspection}{subsection.2.4.1}{}}
\newlabel{listing-spifivetuple}{{2.4}{31}{Example of 5-Tuple based configuration}{lstlisting.2.4}{}}
\@writefile{lol}{\contentsline {lstlisting}{\numberline {2.4}Example of 5-Tuple based configuration}{31}{lstlisting.2.4}}
\@writefile{toc}{\contentsline {subsection}{\numberline {2.4.2}Medium Packet Inspection}{31}{subsection.2.4.2}}
\newlabel{subsection-mediumpacketinspection}{{2.4.2}{31}{Medium Packet Inspection}{subsection.2.4.2}{}}
\@writefile{lof}{\contentsline {figure}{\numberline {2.6}{\ignorespaces An example packet. Different levels of packet inspection have access to different protocols within a packet.\relax }}{32}{figure.caption.12}}
\newlabel{figure-examplepacket}{{2.6}{32}{An example packet. Different levels of packet inspection have access to different protocols within a packet.\relax }{figure.caption.12}{}}
\citation{handley2001}
\citation{parsons2012}
\citation{parsons2012}
\citation{sourdis2007}
\citation{sourdis2007}
\citation{yu2006}
\@writefile{toc}{\contentsline {subsection}{\numberline {2.4.3}Deep Packet Inspection}{33}{subsection.2.4.3}}
\newlabel{subsection-deeppacketinspection}{{2.4.3}{33}{Deep Packet Inspection}{subsection.2.4.3}{}}
\citation{moore1965}
\citation{neilsen1998}
\citation{arbor2011,bendrath2011,mueller2012}
\citation{mueller2012}
\citation{necker2002}
\citation{callado2010}
\citation{parsons2012}
\citation{callado2010}
\citation{parsons2012}
\citation{parsons2012}
\citation{bonfiglio2007}
\citation{bonfiglio2007}
\citation{bonfiglio2007}
\citation{alshammar2011}
\citation{moore2005}
\citation{moore2005}
\citation{moore2005}
\citation{alshammar2011}
\citation{hibberd2012}
\@writefile{toc}{\contentsline {subsection}{\numberline {2.4.4}Encrypted Traffic}{35}{subsection.2.4.4}}
\newlabel{subsection-encryptedtraffic}{{2.4.4}{35}{Encrypted Traffic}{subsection.2.4.4}{}}
\citation{parsons2012}
\citation{parsons2012}
\citation{kemmerer2002}
\citation{kemmerer2002}
\citation{yang2010}
\citation{kumar2006,parsons2012}
\@writefile{toc}{\contentsline {subsection}{\numberline {2.4.5}Why Perform DPI?}{36}{subsection.2.4.5}}
\newlabel{subsection-whyperformdpi}{{2.4.5}{36}{Why Perform DPI?}{subsection.2.4.5}{}}
\citation{quink2009}
\citation{parsons2012}
\citation{gupta2013}
\citation{parsons2012}
\@writefile{toc}{\contentsline {section}{\numberline {2.5}Summary}{38}{section.2.5}}
\newlabel{section-literaturereviewsummary}{{2.5}{38}{Summary}{section.2.5}{}}
\citation{crochemore2002}
\citation{stephen1994}
\citation{chaudhary2011}
\citation{sourdis2007}
\citation{chaudhary2011}
\citation{charras2004}
\@writefile{toc}{\contentsline {chapter}{\numberline {3}Algorithms}{40}{chapter.3}}
\@writefile{lof}{\addvspace {10\p@ }}
\@writefile{lot}{\addvspace {10\p@ }}
\newlabel{chapter-algorithms}{{3}{40}{Algorithms}{chapter.3}{}}
\citation{crochemore2002}
\citation{srikantha2010}
\citation{charras2004}
\citation{charras2004}
\@writefile{toc}{\contentsline {section}{\numberline {3.1}Stringology Primer}{41}{section.3.1}}
\newlabel{section-stringologyprimer}{{3.1}{41}{Stringology Primer}{section.3.1}{}}
\citation{morris1970}
\citation{morris1970}
\citation{knuth1977}
\citation{knuth1977}
\citation{boyer1977}
\citation{boyer1977}
\citation{horspool1980}
\citation{horspool1980}
\citation{apostolico1986}
\citation{apostolico1986}
\citation{karp1987}
\citation{karp1987}
\citation{feng1987}
\citation{feng1987}
\citation{sunday1990}
\citation{sunday1990}
\citation{smith1991}
\citation{smith1991}
\citation{apostolico1991}
\citation{apostolico1991}
\citation{colussi1991}
\citation{colussi1991}
\citation{raita1991}
\citation{raita1991}
\citation{galil1992}
\citation{galil1992}
\citation{baezayates1992}
\citation{baezayates1992}
\citation{hancart1993}
\citation{hancart1993}
\citation{simon1994}
\citation{simon1994}
\citation{crochemore1994}
\citation{crochemore1994}
\citation{colussi1994}
\citation{colussi1994}
\citation{law2012}
\@writefile{lof}{\contentsline {figure}{\numberline {3.1}{\ignorespaces A timeline of the string search algorithms selected for this research\relax }}{42}{figure.caption.13}}
\newlabel{figure-algorithmtimeline}{{3.1}{42}{A timeline of the string search algorithms selected for this research\relax }{figure.caption.13}{}}
\citation{jenkov2014}
\citation{jenkov2014}
\@writefile{lot}{\contentsline {table}{\numberline {3.1}{\ignorespaces Implemented string search algorithms.\relax }}{43}{table.caption.14}}
\newlabel{table-algorithms}{{3.1}{43}{Implemented string search algorithms.\relax }{table.caption.14}{}}
\citation{charras2004}
\citation{charras2004}
\@writefile{lof}{\contentsline {figure}{\numberline {3.2}{\ignorespaces An example of a multi-core, multi-threaded CPU.}}{44}{figure.caption.15}}
\newlabel{}{{3.2}{44}{An example of a multi-core, multi-threaded CPU}{figure.caption.15}{}}
\@writefile{toc}{\contentsline {section}{\numberline {3.2}Na{\"i}ve}{44}{section.3.2}}
\newlabel{section-naive}{{3.2}{44}{Na{\"i}ve}{section.3.2}{}}
\citation{morris1970}
\citation{morris1970}
\citation{charras2004}
\citation{aho1974}
\citation{knuth1977}
\citation{morris1970}
\citation{knuth1977,charras2004}
\citation{boyer1977}
\citation{charras2004}
\citation{haertel2010}
\citation{charras2004}
\citation{lecroq1995}
\citation{boyer1977}
\@writefile{toc}{\contentsline {section}{\numberline {3.3}Morris-Pratt}{45}{section.3.3}}
\newlabel{section-morrispratt}{{3.3}{45}{Morris-Pratt}{section.3.3}{}}
\@writefile{toc}{\contentsline {section}{\numberline {3.4}Knuth-Morris-Pratt}{45}{section.3.4}}
\newlabel{section-knuthmorrispratt}{{3.4}{45}{Knuth-Morris-Pratt}{section.3.4}{}}
\@writefile{toc}{\contentsline {section}{\numberline {3.5}Boyer-Moore}{45}{section.3.5}}
\newlabel{section-boyermoore}{{3.5}{45}{Boyer-Moore}{section.3.5}{}}
\citation{horspool1980}
\citation{boyer1977}
\citation{boyer1977}
\citation{horspool1980}
\citation{bemer1960}
\citation{pike1993}
\citation{charras2004}
\citation{baezayates1992}
\citation{karp1987}
\citation{aho1990}
\citation{charras2004}
\citation{karp1987}
\citation{boyer1977}
\citation{feng1987}
\@writefile{toc}{\contentsline {section}{\numberline {3.6}Horspool}{46}{section.3.6}}
\newlabel{section-horspool}{{3.6}{46}{Horspool}{section.3.6}{}}
\@writefile{toc}{\contentsline {section}{\numberline {3.7}Rabin-Karp}{46}{section.3.7}}
\newlabel{section-rabinkarp}{{3.7}{46}{Rabin-Karp}{section.3.7}{}}
\citation{lecroq2007}
\citation{boyer1977}
\citation{sunday1990,stephen1994,lecroq1995,crochemore1996}
\citation{charras2004}
\citation{smith1991}
\citation{horspool1980}
\citation{sunday1990}
\citation{smith1991}
\citation{smith1991}
\citation{smith1991}
\citation{smith1991}
\citation{charras2004}
\citation{apostolico1991}
\citation{knuth1977}
\citation{charras2004}
\@writefile{toc}{\contentsline {section}{\numberline {3.8}Zhu-Takaoka}{47}{section.3.8}}
\newlabel{section-zhutakaoka}{{3.8}{47}{Zhu-Takaoka}{section.3.8}{}}
\@writefile{toc}{\contentsline {section}{\numberline {3.9}Quick Search}{47}{section.3.9}}
\newlabel{section-quicksearch}{{3.9}{47}{Quick Search}{section.3.9}{}}
\@writefile{toc}{\contentsline {section}{\numberline {3.10}Smith}{47}{section.3.10}}
\newlabel{section-smith}{{3.10}{47}{Smith}{section.3.10}{}}
\citation{colussi1991}
\citation{knuth1977}
\citation{breslauer1992,galil1992}
\citation{charras2004}
\citation{raita1991}
\citation{raita1991}
\citation{raita1991}
\citation{charras2004}
\citation{raita1991}
\@writefile{toc}{\contentsline {section}{\numberline {3.11}Apostolico-Crochemore}{48}{section.3.11}}
\newlabel{section-apostolicocrochemore}{{3.11}{48}{Apostolico-Crochemore}{section.3.11}{}}
\@writefile{toc}{\contentsline {section}{\numberline {3.12}Colussi}{48}{section.3.12}}
\newlabel{section-colussi}{{3.12}{48}{Colussi}{section.3.12}{}}
\@writefile{toc}{\contentsline {section}{\numberline {3.13}Raita}{48}{section.3.13}}
\newlabel{section-raita}{{3.13}{48}{Raita}{section.3.13}{}}
\citation{smith1994}
\citation{raita1991}
\citation{galil1992}
\citation{colussi1991}
\citation{charras2004}
\citation{galil1992}
\citation{breslauer1992}
\citation{galil1992}
\citation{baezayates1992}
\citation{baezayates1992,charras2004}
\citation{baezayates1992,wu1992,crochemore1996}
\citation{simon1994}
\citation{charras2004}
\citation{simon1994}
\citation{charras2004}
\@writefile{toc}{\contentsline {section}{\numberline {3.14}Galil-Gaincarlo}{49}{section.3.14}}
\newlabel{section-gaililgiancarlo}{{3.14}{49}{Galil-Gaincarlo}{section.3.14}{}}
\@writefile{toc}{\contentsline {section}{\numberline {3.15}Bitap}{49}{section.3.15}}
\newlabel{section-bitap}{{3.15}{49}{Bitap}{section.3.15}{}}
\@writefile{toc}{\contentsline {section}{\numberline {3.16}Simon}{49}{section.3.16}}
\newlabel{section-simon}{{3.16}{49}{Simon}{section.3.16}{}}
\citation{hancart1993}
\citation{charras2004}
\citation{hancart1993}
\citation{crochemore1994}
\citation{boyer1977}
\citation{lecroq1995}
\citation{charras2004}
\citation{colussi1994}
\citation{boyer1977}
\citation{charras2004}
\citation{colussi1994}
\citation{colussi1991}
\citation{faro2013}
\citation{faro2013}
\@writefile{toc}{\contentsline {section}{\numberline {3.17}Not So Naive}{50}{section.3.17}}
\newlabel{section-notsonaive}{{3.17}{50}{Not So Naive}{section.3.17}{}}
\@writefile{toc}{\contentsline {section}{\numberline {3.18}Turbo Boyer-Moore}{50}{section.3.18}}
\newlabel{section-turboboyermoore}{{3.18}{50}{Turbo Boyer-Moore}{section.3.18}{}}
\@writefile{toc}{\contentsline {section}{\numberline {3.19}Reverse Colussi}{50}{section.3.19}}
\newlabel{section-reversecolussi}{{3.19}{50}{Reverse Colussi}{section.3.19}{}}
\citation{faro2013}
\citation{kulekci2009}
\citation{fan2009}
\citation{faro2009}
\@writefile{toc}{\contentsline {section}{\numberline {3.20}Summary}{51}{section.3.20}}
\newlabel{section-algorithmsummary}{{3.20}{51}{Summary}{section.3.20}{}}
\@writefile{lof}{\contentsline {figure}{\numberline {3.3}{\ignorespaces String search algorithms family tree\relax }}{51}{figure.caption.16}}
\newlabel{figure-algorithmsfamilytree}{{3.3}{51}{String search algorithms family tree\relax }{figure.caption.16}{}}
\citation{haertel2010}
\citation{chaudhary2011}
\citation{garcia2008}
\@writefile{toc}{\contentsline {chapter}{\numberline {4}Datasets}{53}{chapter.4}}
\@writefile{lof}{\addvspace {10\p@ }}
\@writefile{lot}{\addvspace {10\p@ }}
\newlabel{chapter-datasets}{{4}{53}{Datasets}{chapter.4}{}}
\@writefile{toc}{\contentsline {section}{\numberline {4.1}Dataset A}{53}{section.4.1}}
\newlabel{section-dataseta}{{4.1}{53}{Dataset A}{section.4.1}{}}
\citation{borman1999}
\citation{law2012}
\@writefile{lot}{\contentsline {table}{\numberline {4.1}{\ignorespaces All datasets used by the test system during the tests\relax }}{54}{table.caption.17}}
\newlabel{table-datasets}{{4.1}{54}{All datasets used by the test system during the tests\relax }{table.caption.17}{}}
\@writefile{toc}{\contentsline {section}{\numberline {4.2}Dataset B}{54}{section.4.2}}
\newlabel{section-datasetb}{{4.2}{54}{Dataset B}{section.4.2}{}}
\citation{ramirez1999}
\@writefile{toc}{\contentsline {section}{\numberline {4.3}Dataset C}{55}{section.4.3}}
\newlabel{section-datasetc}{{4.3}{55}{Dataset C}{section.4.3}{}}
\newlabel{listing-randpkt-dns}{{4.1}{55}{Creating 10000 random DNS packets for \ds {c}}{lstlisting.4.1}{}}
\@writefile{lol}{\contentsline {lstlisting}{\numberline {4.1}Creating 10000 random DNS packets for \hyperref  [section-datasetc]{\textit  {Dataset \uppercase {c}}}\xspace  }{55}{lstlisting.4.1}}
\@writefile{lof}{\contentsline {figure}{\numberline {4.1}{\ignorespaces \hyperref  [section-datasetc]{\textit  {Dataset \uppercase {c}}}\xspace  \relax }}{56}{figure.caption.18}}
\newlabel{figure-datasetc}{{4.1}{56}{\ds {c}\relax }{figure.caption.18}{}}
\@writefile{toc}{\contentsline {section}{\numberline {4.4}Dataset D}{56}{section.4.4}}
\newlabel{section-datasetd}{{4.4}{56}{Dataset D}{section.4.4}{}}
\@writefile{lof}{\contentsline {figure}{\numberline {4.2}{\ignorespaces \hyperref  [section-datasetd]{\textit  {Dataset \uppercase {d}}}\xspace  \relax }}{57}{figure.caption.19}}
\newlabel{figure-datasetd}{{4.2}{57}{\ds {d}\relax }{figure.caption.19}{}}
\@writefile{toc}{\contentsline {section}{\numberline {4.5}Dataset E}{57}{section.4.5}}
\newlabel{section-datasete}{{4.5}{57}{Dataset E}{section.4.5}{}}
\@writefile{lof}{\contentsline {figure}{\numberline {4.3}{\ignorespaces \hyperref  [section-datasete]{\textit  {Dataset \uppercase {e}}}\xspace  \relax }}{57}{figure.caption.20}}
\newlabel{figure-datasete}{{4.3}{57}{\ds {e}\relax }{figure.caption.20}{}}
\@writefile{toc}{\contentsline {section}{\numberline {4.6}Dataset F}{58}{section.4.6}}
\newlabel{section-datasetf}{{4.6}{58}{Dataset F}{section.4.6}{}}
\newlabel{listing-barednsscapy}{{4.2}{58}{Creating a bare DNS packet with Python and Scapy}{lstlisting.4.2}{}}
\@writefile{lol}{\contentsline {lstlisting}{\numberline {4.2}Creating a bare DNS packet with Python and Scapy}{58}{lstlisting.4.2}}
\@writefile{lof}{\contentsline {figure}{\numberline {4.4}{\ignorespaces \hyperref  [section-datasetf]{\textit  {Dataset \uppercase {f}}}\xspace  \relax }}{59}{figure.caption.21}}
\newlabel{figure-datasetf}{{4.4}{59}{\ds {f}\relax }{figure.caption.21}{}}
\@writefile{toc}{\contentsline {section}{\numberline {4.7}Summary}{59}{section.4.7}}
\newlabel{section-datasetssummary}{{4.7}{59}{Summary}{section.4.7}{}}
\@writefile{toc}{\contentsline {part}{II\hspace  {1em}Packet Inspection Framework}{60}{part.2}}
\newlabel{part-packetinspectionframework}{{II}{61}{Packet Inspection Framework}{part.2}{}}
\@writefile{toc}{\contentsline {chapter}{\numberline {5}Design}{61}{chapter.5}}
\@writefile{lof}{\addvspace {10\p@ }}
\@writefile{lot}{\addvspace {10\p@ }}
\newlabel{chapter-design}{{5}{61}{Design}{chapter.5}{}}
\@writefile{toc}{\contentsline {section}{\numberline {5.1}Introduction}{61}{section.5.1}}
\newlabel{section-designintroduction}{{5.1}{61}{Introduction}{section.5.1}{}}
\citation{crockford2006}
\@writefile{lof}{\contentsline {figure}{\numberline {5.1}{\ignorespaces A diagram describing the broad design of the testing system.\relax }}{62}{figure.caption.22}}
\newlabel{figure-dpitesteroverview}{{5.1}{62}{A diagram describing the broad design of the testing system.\relax }{figure.caption.22}{}}
\@writefile{toc}{\contentsline {section}{\numberline {5.2}Overall Design}{62}{section.5.2}}
\newlabel{section-overalldesign}{{5.2}{62}{Overall Design}{section.5.2}{}}
\@writefile{toc}{\contentsline {section}{\numberline {5.3}Input}{62}{section.5.3}}
\newlabel{section-designinput}{{5.3}{62}{Input}{section.5.3}{}}
\@writefile{lof}{\contentsline {figure}{\numberline {5.2}{\ignorespaces A representation of the input to the test system.\relax }}{62}{figure.caption.23}}
\newlabel{figure-dpitesterinput}{{5.2}{62}{A representation of the input to the test system.\relax }{figure.caption.23}{}}
\citation{crockford2006}
\@writefile{toc}{\contentsline {section}{\numberline {5.4}Processing}{63}{section.5.4}}
\newlabel{section-designprocessing}{{5.4}{63}{Processing}{section.5.4}{}}
\@writefile{lof}{\contentsline {figure}{\numberline {5.3}{\ignorespaces The functioning of the main processing logic of the test system.\relax }}{64}{figure.caption.24}}
\newlabel{figure-dpitesterprocessor}{{5.3}{64}{The functioning of the main processing logic of the test system.\relax }{figure.caption.24}{}}
\@writefile{toc}{\contentsline {section}{\numberline {5.5}Statistics Generation}{64}{section.5.5}}
\newlabel{section-designstatisticsgeneration}{{5.5}{64}{Statistics Generation}{section.5.5}{}}
\@writefile{lof}{\contentsline {figure}{\numberline {5.4}{\ignorespaces The flow of the statistics generation design.\relax }}{65}{figure.caption.25}}
\newlabel{figure-dpitesterstatisticsgenerator}{{5.4}{65}{The flow of the statistics generation design.\relax }{figure.caption.25}{}}
\@writefile{toc}{\contentsline {section}{\numberline {5.6}Statistical Output}{66}{section.5.6}}
\newlabel{section-designstatisticaloutput}{{5.6}{66}{Statistical Output}{section.5.6}{}}
\@writefile{lof}{\contentsline {figure}{\numberline {5.5}{\ignorespaces The structure of the output of the statistics generation\relax }}{66}{figure.caption.26}}
\newlabel{figure-dpitestestatisticsoutput}{{5.5}{66}{The structure of the output of the statistics generation\relax }{figure.caption.26}{}}
\citation{crockford2006}
\@writefile{toc}{\contentsline {section}{\numberline {5.7}Raw Output}{67}{section.5.7}}
\newlabel{section-designrawoutput}{{5.7}{67}{Raw Output}{section.5.7}{}}
\@writefile{lof}{\contentsline {figure}{\numberline {5.6}{\ignorespaces A representation of the output of the test system.\relax }}{68}{figure.caption.27}}
\newlabel{figure-dpitesteroutput}{{5.6}{68}{A representation of the output of the test system.\relax }{figure.caption.27}{}}
\@writefile{toc}{\contentsline {section}{\numberline {5.8}Summary}{69}{section.5.8}}
\newlabel{section-designsummary}{{5.8}{69}{Summary}{section.5.8}{}}
\@writefile{toc}{\contentsline {chapter}{\numberline {6}Implementation}{70}{chapter.6}}
\@writefile{lof}{\addvspace {10\p@ }}
\@writefile{lot}{\addvspace {10\p@ }}
\newlabel{chapter-implementation}{{6}{70}{Implementation}{chapter.6}{}}
\@writefile{toc}{\contentsline {section}{\numberline {6.1}Example Test}{71}{section.6.1}}
\newlabel{section-exampletest}{{6.1}{71}{Example Test}{section.6.1}{}}
\@writefile{toc}{\contentsline {subsection}{\numberline {6.1.1}Program Startup}{71}{subsection.6.1.1}}
\newlabel{subsection-implementationprogramstartup}{{6.1.1}{71}{Program Startup}{subsection.6.1.1}{}}
\@writefile{lof}{\contentsline {figure}{\numberline {6.1}{\ignorespaces Test run example screenshot 1. From the start of the system to setting the number of threads.\relax }}{72}{figure.caption.28}}
\newlabel{figure-testrunexample1}{{6.1}{72}{Test run example screenshot 1. From the start of the system to setting the number of threads.\relax }{figure.caption.28}{}}
\@writefile{toc}{\contentsline {subsection}{\numberline {6.1.2}Testing}{73}{subsection.6.1.2}}
\newlabel{subsection-implementationtesting}{{6.1.2}{73}{Testing}{subsection.6.1.2}{}}
\@writefile{lof}{\contentsline {figure}{\numberline {6.2}{\ignorespaces Test run example screenshot 2. From the start of the testing to somewhere into the tests.\relax }}{73}{figure.caption.29}}
\newlabel{figure-testrunexample2}{{6.2}{73}{Test run example screenshot 2. From the start of the testing to somewhere into the tests.\relax }{figure.caption.29}{}}
\@writefile{toc}{\contentsline {subsection}{\numberline {6.1.3}Statistics Generation}{74}{subsection.6.1.3}}
\newlabel{subsection-implementationstatisticsgeneration}{{6.1.3}{74}{Statistics Generation}{subsection.6.1.3}{}}
\@writefile{lof}{\contentsline {figure}{\numberline {6.3}{\ignorespaces Test run example screenshot 3. From the end of the testing to a point in the statistics generation.\relax }}{75}{figure.caption.30}}
\newlabel{figure-testrunexample3}{{6.3}{75}{Test run example screenshot 3. From the end of the testing to a point in the statistics generation.\relax }{figure.caption.30}{}}
\@writefile{toc}{\contentsline {subsection}{\numberline {6.1.4}Output}{75}{subsection.6.1.4}}
\newlabel{subsection-implementationoutput}{{6.1.4}{75}{Output}{subsection.6.1.4}{}}
\citation{crockford2006}
\@writefile{lof}{\contentsline {figure}{\numberline {6.4}{\ignorespaces Test run example screenshot 4. From another point in the statistics generation to the system's completion.\relax }}{76}{figure.caption.31}}
\newlabel{figure-testrunexample4}{{6.4}{76}{Test run example screenshot 4. From another point in the statistics generation to the system's completion.\relax }{figure.caption.31}{}}
\citation{crockford2006}
\citation{crockford2006}
\citation{crockford2006}
\citation{crockford2006}
\citation{crockford2006}
\citation{bray1998}
\@writefile{toc}{\contentsline {subsection}{\numberline {6.1.5}Test Configuration}{77}{subsection.6.1.5}}
\newlabel{subsection-implementationtestconfiguration}{{6.1.5}{77}{Test Configuration}{subsection.6.1.5}{}}
\newlabel{listing-exampletestconfiguration}{{6.1}{78}{Example test configuration JSON file}{lstlisting.6.1}{}}
\@writefile{lol}{\contentsline {lstlisting}{\numberline {6.1}Example test configuration JSON file.}{78}{lstlisting.6.1}}
\citation{crockford2006}
\newlabel{listing-testsystemrunning}{{6.2}{79}{Running the test system}{lstlisting.6.2}{}}
\@writefile{lol}{\contentsline {lstlisting}{\numberline {6.2}Running the test system.}{79}{lstlisting.6.2}}
\@writefile{toc}{\contentsline {subsection}{\numberline {6.1.6}Statistics Output}{79}{subsection.6.1.6}}
\newlabel{subsection-implementationstatisticsoutput}{{6.1.6}{79}{Statistics Output}{subsection.6.1.6}{}}
\newlabel{listing-examplestatisticsoutput}{{6.3}{80}{Example statistical output}{lstlisting.6.3}{}}
\@writefile{lol}{\contentsline {lstlisting}{\numberline {6.3}Example statistical output.}{80}{lstlisting.6.3}}
\citation{thompson1975}
\@writefile{toc}{\contentsline {subsection}{\numberline {6.1.7}Raw Results Output}{81}{subsection.6.1.7}}
\newlabel{subsection-implementationrawresultsoutput}{{6.1.7}{81}{Raw Results Output}{subsection.6.1.7}{}}
\newlabel{listing-examplerawresultsoutput}{{6.4}{82}{Example raw results output}{lstlisting.6.4}{}}
\@writefile{lol}{\contentsline {lstlisting}{\numberline {6.4}Example raw results output}{82}{lstlisting.6.4}}
\@writefile{toc}{\contentsline {section}{\numberline {6.2}Summary}{83}{section.6.2}}
\newlabel{section-packetinspectionframeworksummary}{{6.2}{83}{Summary}{section.6.2}{}}
\@writefile{toc}{\contentsline {part}{III\hspace  {1em}Testing and Analysis}{84}{part.3}}
\citation{ihaka1996}
\citation{wickham2011}
\newlabel{part-testingandanalysis}{{III}{85}{Testing and Analysis}{part.3}{}}
\@writefile{toc}{\contentsline {chapter}{\numberline {7}Initial Algorithm Comparison}{85}{chapter.7}}
\@writefile{lof}{\addvspace {10\p@ }}
\@writefile{lot}{\addvspace {10\p@ }}
\newlabel{chapter-initialalgorithmcomparison}{{7}{85}{Initial Algorithm Comparison}{chapter.7}{}}
\@writefile{toc}{\contentsline {section}{\numberline {7.1}Rules}{86}{section.7.1}}
\newlabel{section-rules}{{7.1}{86}{Rules}{section.7.1}{}}
\@writefile{lot}{\contentsline {table}{\numberline {7.1}{\ignorespaces Rules used throughout the algorithm testing\relax }}{86}{table.caption.36}}
\newlabel{table-rules}{{7.1}{86}{Rules used throughout the algorithm testing\relax }{table.caption.36}{}}
\citation{crochemore2002,charras2004,lecroq2007,faro2013}
\@writefile{toc}{\contentsline {section}{\numberline {7.2}Test Hardware}{87}{section.7.2}}
\newlabel{section-testhardware}{{7.2}{87}{Test Hardware}{section.7.2}{}}
\@writefile{toc}{\contentsline {section}{\numberline {7.3}Algorithm Performance?}{87}{section.7.3}}
\newlabel{section-overallalgorithms}{{7.3}{87}{Algorithm Performance?}{section.7.3}{}}
\citation{kumar2006}
\citation{zwicky2000}
\@writefile{toc}{\contentsline {subsection}{\numberline {7.3.1}\hyperref  [section-dataseta]{\textit  {Dataset \uppercase {a}}}\xspace  }{88}{subsection.7.3.1}}
\newlabel{subsection-overallalgorithmsdataseta}{{7.3.1}{88}{\ds {a}}{subsection.7.3.1}{}}
\citation{borman1999}
\citation{law2012}
\citation{handley2001}
\@writefile{lof}{\contentsline {figure}{\numberline {7.1}{\ignorespaces Algorithm mean input processing time for \hyperref  [section-dataseta]{\textit  {Dataset \uppercase {a}}}\xspace  , ranked by processing time.\relax }}{89}{figure.caption.37}}
\newlabel{figure-meanprocessingtimedataseta}{{7.1}{89}{Algorithm mean input processing time for \ds {a}, ranked by processing time.\relax }{figure.caption.37}{}}
\@writefile{toc}{\contentsline {subsection}{\numberline {7.3.2}\hyperref  [section-datasetb]{\textit  {Dataset \uppercase {b}}}\xspace  }{90}{subsection.7.3.2}}
\newlabel{subsection-overallalgorithmsdatasetb}{{7.3.2}{90}{\ds {b}}{subsection.7.3.2}{}}
\@writefile{lof}{\contentsline {figure}{\numberline {7.2}{\ignorespaces Algorithm mean input processing time for \hyperref  [section-datasetb]{\textit  {Dataset \uppercase {b}}}\xspace  .\relax }}{90}{figure.caption.38}}
\newlabel{figure-meanprocessingtimedatasetb}{{7.2}{90}{Algorithm mean input processing time for \ds {b}.\relax }{figure.caption.38}{}}
\citation{aho1990,stephen1994,lecroq1995,crochemore1996}
\citation{zwicky2000}
\citation{hoffman2013}
\citation{anthony2015}
\citation{anthony2015}
\citation{needham1993,douligeris2004,abliz2011}
\@writefile{toc}{\contentsline {section}{\numberline {7.4}Which algorithms vary the most?}{92}{section.7.4}}
\newlabel{section-variation}{{7.4}{92}{Which algorithms vary the most?}{section.7.4}{}}
\@writefile{lof}{\contentsline {figure}{\numberline {7.3}{\ignorespaces Mean packet processing time standard deviation for \hyperref  [section-dataseta]{\textit  {Dataset \uppercase {a}}}\xspace  \relax }}{93}{figure.caption.39}}
\newlabel{figure-standarddeviationprocessingtimedataseta}{{7.3}{93}{Mean packet processing time standard deviation for \ds {a}\relax }{figure.caption.39}{}}
\citation{boyer1977}
\citation{bachman1894,landau1909}
\@writefile{toc}{\contentsline {section}{\numberline {7.5}Length Impact on Performance}{95}{section.7.5}}
\newlabel{section-inputlength}{{7.5}{95}{Length Impact on Performance}{section.7.5}{}}
\newlabel{figure-bigo1}{{7.5}{95}{Length Impact on Performance}{figure.caption.41}{}}
\newlabel{figure-bigo2}{{7.5}{95}{Length Impact on Performance}{figure.caption.41}{}}
\newlabel{figure-bigo1}{{7.5}{95}{Length Impact on Performance}{figure.caption.41}{}}
\@writefile{lof}{\contentsline {figure}{\numberline {7.4}{\ignorespaces Big-O Comparison: \textit  {O(n)} vs \textit  {O(n\textsuperscript  {2})}\relax }}{96}{figure.caption.40}}
\newlabel{figure-bigo1}{{7.4}{96}{Big-O Comparison: \textit {O(n)} vs \textit {O(n\textsuperscript {2})}\relax }{figure.caption.40}{}}
\@writefile{lot}{\contentsline {table}{\numberline {7.2}{\ignorespaces The four chosen algorithms.\relax }}{96}{table.caption.42}}
\newlabel{table-fouralgorithms}{{7.2}{96}{The four chosen algorithms.\relax }{table.caption.42}{}}
\newlabel{figure-bigo2}{{7.5}{96}{Length Impact on Performance}{figure.caption.41}{}}
\@writefile{lof}{\contentsline {figure}{\numberline {7.5}{\ignorespaces Big-O Comparison: \textit  {O(1000n)} vs \textit  {O(n\textsuperscript  {2})}\relax }}{97}{figure.caption.41}}
\newlabel{figure-bigo2}{{7.5}{97}{Big-O Comparison: \textit {O(1000n)} vs \textit {O(n\textsuperscript {2})}\relax }{figure.caption.41}{}}
\@writefile{lof}{\contentsline {figure}{\numberline {7.6}{\ignorespaces Overall mean processing time for combined algorithms vs input length for \hyperref  [section-dataseta]{\textit  {Dataset \uppercase {a}}}\xspace  .\relax }}{98}{figure.caption.43}}
\newlabel{figure-meanprocessingtimevsinputlengthall}{{7.6}{98}{Overall mean processing time for combined algorithms vs input length for \ds {a}.\relax }{figure.caption.43}{}}
\@writefile{toc}{\contentsline {subsection}{\numberline {7.5.1}Horspool}{98}{subsection.7.5.1}}
\newlabel{subsection-inputlengthhorspool}{{7.5.1}{98}{Horspool}{subsection.7.5.1}{}}
\citation{law2012}
\@writefile{lof}{\contentsline {figure}{\numberline {7.7}{\ignorespaces Horspool algorithm: Input processing time vs input length for \hyperref  [section-dataseta]{\textit  {Dataset \uppercase {a}}}\xspace  .\relax }}{99}{figure.caption.44}}
\newlabel{figure-meanprocessingtimevsinputlengthhorspool}{{7.7}{99}{Horspool algorithm: Input processing time vs input length for \ds {a}.\relax }{figure.caption.44}{}}
\@writefile{toc}{\contentsline {subsection}{\numberline {7.5.2}Quick Search}{100}{subsection.7.5.2}}
\newlabel{subsection-inputlengthquicksearch}{{7.5.2}{100}{Quick Search}{subsection.7.5.2}{}}
\@writefile{lof}{\contentsline {figure}{\numberline {7.8}{\ignorespaces Quick Search algorithm: Input processing time vs input length for \hyperref  [section-dataseta]{\textit  {Dataset \uppercase {a}}}\xspace  \relax }}{100}{figure.caption.45}}
\newlabel{figure-meanprocessingtimevsinputlengthquicksearch}{{7.8}{100}{Quick Search algorithm: Input processing time vs input length for \ds {a}\relax }{figure.caption.45}{}}
\citation{thomson2003}
\@writefile{toc}{\contentsline {subsection}{\numberline {7.5.3}Not So Na\"ive}{101}{subsection.7.5.3}}
\newlabel{subsection-inputlengthnotsonaive}{{7.5.3}{101}{Not So Na\"ive}{subsection.7.5.3}{}}
\@writefile{lof}{\contentsline {figure}{\numberline {7.9}{\ignorespaces The results of a DNS lookup using the \texttt  {dig} utility. The command used was \texttt  {dig ru.ac.za +stats}.\relax }}{102}{figure.caption.46}}
\newlabel{figure-screenshotdigruacza}{{7.9}{102}{The results of a DNS lookup using the \texttt {dig} utility. The command used was \texttt {dig ru.ac.za +stats}.\relax }{figure.caption.46}{}}
\@writefile{lof}{\contentsline {figure}{\numberline {7.10}{\ignorespaces Not So Na{\"i}ve algorithm: Input processing time vs input length for \hyperref  [section-dataseta]{\textit  {Dataset \uppercase {a}}}\xspace  .\relax }}{103}{figure.caption.47}}
\newlabel{figure-meanprocessingtimevsinputlengthnotsonaive}{{7.10}{103}{Not So Na{\"i}ve algorithm: Input processing time vs input length for \ds {a}.\relax }{figure.caption.47}{}}
\@writefile{toc}{\contentsline {subsection}{\numberline {7.5.4}Rabin-Karp}{103}{subsection.7.5.4}}
\newlabel{subsection-inputlengthrabinkarp}{{7.5.4}{103}{Rabin-Karp}{subsection.7.5.4}{}}
\@writefile{lof}{\contentsline {figure}{\numberline {7.11}{\ignorespaces Rabin-Karp algorithm: Input processing time vs input length for \hyperref  [section-dataseta]{\textit  {Dataset \uppercase {a}}}\xspace  .\relax }}{104}{figure.caption.48}}
\newlabel{figure-meanprocessingtimevsinputlengthrabinkarp}{{7.11}{104}{Rabin-Karp algorithm: Input processing time vs input length for \ds {a}.\relax }{figure.caption.48}{}}
\@writefile{toc}{\contentsline {section}{\numberline {7.6}Summary}{105}{section.7.6}}
\newlabel{section-initialalgorithmcomparisonsummary}{{7.6}{105}{Summary}{section.7.6}{}}
\@writefile{lot}{\contentsline {table}{\numberline {7.3}{\ignorespaces Chapter \ref  {chapter-initialalgorithmcomparison} algorithm rankings\relax }}{105}{table.caption.49}}
\newlabel{table-initialresultssummary}{{7.3}{105}{Chapter \ref {chapter-initialalgorithmcomparison} algorithm rankings\relax }{table.caption.49}{}}
\@writefile{toc}{\contentsline {chapter}{\numberline {8}Further Algorithm Comparison}{107}{chapter.8}}
\@writefile{lof}{\addvspace {10\p@ }}
\@writefile{lot}{\addvspace {10\p@ }}
\newlabel{chapter-furtheralgorithmcomparison}{{8}{107}{Further Algorithm Comparison}{chapter.8}{}}
\citation{law2012}
\citation{ramirez1999}
\@writefile{toc}{\contentsline {section}{\numberline {8.1}Performance versus input length with no matches}{108}{section.8.1}}
\newlabel{section-inputlengthnomatches}{{8.1}{108}{Performance versus input length with no matches}{section.8.1}{}}
\@writefile{toc}{\contentsline {subsection}{\numberline {8.1.1}Horspool}{108}{subsection.8.1.1}}
\newlabel{subsection-inputlengthnomatcheshorspool}{{8.1.1}{108}{Horspool}{subsection.8.1.1}{}}
\@writefile{lof}{\contentsline {figure}{\numberline {8.1}{\ignorespaces Horspool algorithm: Input processing time vs input length for \textit  {Dataset C}.\relax }}{109}{figure.caption.50}}
\newlabel{figure-meanprocessingtimevsinputlengthnomatcheshorspool}{{8.1}{109}{Horspool algorithm: Input processing time vs input length for \textit {Dataset C}.\relax }{figure.caption.50}{}}
\@writefile{toc}{\contentsline {subsection}{\numberline {8.1.2}Quick Search}{109}{subsection.8.1.2}}
\newlabel{subsection-inputlengthnomatchesquicksearch}{{8.1.2}{109}{Quick Search}{subsection.8.1.2}{}}
\@writefile{lof}{\contentsline {figure}{\numberline {8.2}{\ignorespaces Quick Search algorithm: Input processing time vs input length for \hyperref  [section-datasetc]{\textit  {Dataset \uppercase {c}}}\xspace  \relax }}{110}{figure.caption.51}}
\newlabel{figure-meanprocessingtimevsinputlengthnomatchesquicksearch}{{8.2}{110}{Quick Search algorithm: Input processing time vs input length for \ds {c}\relax }{figure.caption.51}{}}
\@writefile{toc}{\contentsline {subsection}{\numberline {8.1.3}Not So Na\"ive}{111}{subsection.8.1.3}}
\newlabel{subsection-inputlengthnomatchesnotsonaive}{{8.1.3}{111}{Not So Na\"ive}{subsection.8.1.3}{}}
\@writefile{lof}{\contentsline {figure}{\numberline {8.3}{\ignorespaces Not So Na{\"i}ve algorithm: Input processing time vs input length for \hyperref  [section-datasetc]{\textit  {Dataset \uppercase {c}}}\xspace  .\relax }}{111}{figure.caption.52}}
\newlabel{figure-meanprocessingtimevsinputlengthnomatchesnotsonaive}{{8.3}{111}{Not So Na{\"i}ve algorithm: Input processing time vs input length for \ds {c}.\relax }{figure.caption.52}{}}
\@writefile{toc}{\contentsline {subsection}{\numberline {8.1.4}Rabin-Karp}{112}{subsection.8.1.4}}
\newlabel{subsection-inputlengthnomatchesrabinkarp}{{8.1.4}{112}{Rabin-Karp}{subsection.8.1.4}{}}
\@writefile{lof}{\contentsline {figure}{\numberline {8.4}{\ignorespaces Rabin-Karp algorithm: Input processing time vs input length for \hyperref  [section-datasetc]{\textit  {Dataset \uppercase {c}}}\xspace  .\relax }}{113}{figure.caption.53}}
\newlabel{figure-meanprocessingtimevsinputlengthnomatchesrabinkarp}{{8.4}{113}{Rabin-Karp algorithm: Input processing time vs input length for \ds {c}.\relax }{figure.caption.53}{}}
\@writefile{toc}{\contentsline {section}{\numberline {8.2}Performance versus number of matches}{114}{section.8.2}}
\newlabel{section-numberofmatches}{{8.2}{114}{Performance versus number of matches}{section.8.2}{}}
\@writefile{toc}{\contentsline {subsection}{\numberline {8.2.1}Horspool}{114}{subsection.8.2.1}}
\newlabel{subsection-numberofmatcheshorspool}{{8.2.1}{114}{Horspool}{subsection.8.2.1}{}}
\newlabel{figure-meanprocessingtimevsnumberofmatcheshorspool}{{8.2.1}{114}{Horspool}{subsection.8.2.1}{}}
\newlabel{figure-meanprocessingtimevsnumberofmatcheshorspool}{{8.2.1}{114}{Horspool}{figure.caption.54}{}}
\@writefile{lof}{\contentsline {figure}{\numberline {8.5}{\ignorespaces Horspool algorithm: Input processing time vs number of matches for \hyperref  [section-datasetf]{\textit  {Dataset \uppercase {f}}}\xspace  .\relax }}{115}{figure.caption.54}}
\newlabel{figure-meanprocessingtimevsnumberofmatcheshorspool}{{8.5}{115}{Horspool algorithm: Input processing time vs number of matches for \ds {f}.\relax }{figure.caption.54}{}}
\@writefile{toc}{\contentsline {subsection}{\numberline {8.2.2}Quick Search}{115}{subsection.8.2.2}}
\newlabel{subsection-numberofmatchesquicksearch}{{8.2.2}{115}{Quick Search}{subsection.8.2.2}{}}
\@writefile{toc}{\contentsline {subsection}{\numberline {8.2.3}Not So Na\"ive}{115}{subsection.8.2.3}}
\newlabel{subsection-numberofmatchesnotsonaive}{{8.2.3}{115}{Not So Na\"ive}{subsection.8.2.3}{}}
\@writefile{lof}{\contentsline {figure}{\numberline {8.6}{\ignorespaces Quick Search algorithm: Input processing time vs number of matches for \hyperref  [section-datasetf]{\textit  {Dataset \uppercase {f}}}\xspace  .\relax }}{116}{figure.caption.55}}
\newlabel{figure-meanprocessingtimevsnumberofmatchesquicksearch}{{8.6}{116}{Quick Search algorithm: Input processing time vs number of matches for \ds {f}.\relax }{figure.caption.55}{}}
\@writefile{toc}{\contentsline {subsection}{\numberline {8.2.4}Rabin-Karp}{116}{subsection.8.2.4}}
\newlabel{subsection-numberofmatchesrabinkarp}{{8.2.4}{116}{Rabin-Karp}{subsection.8.2.4}{}}
\@writefile{lof}{\contentsline {figure}{\numberline {8.7}{\ignorespaces Not So Na{\"i}ve algorithm: Input processing time vs number of matches for \hyperref  [section-datasetf]{\textit  {Dataset \uppercase {f}}}\xspace  .\relax }}{117}{figure.caption.56}}
\newlabel{figure-meanprocessingtimevsnumberofmatchesnotsonaive}{{8.7}{117}{Not So Na{\"i}ve algorithm: Input processing time vs number of matches for \ds {f}.\relax }{figure.caption.56}{}}
\citation{lilly2009}
\citation{lilly2009}
\@writefile{lof}{\contentsline {figure}{\numberline {8.8}{\ignorespaces Rabin-Karp algorithm: Input processing time vs number of matches for \hyperref  [section-datasetf]{\textit  {Dataset \uppercase {f}}}\xspace  .\relax }}{118}{figure.caption.57}}
\newlabel{figure-meanprocessingtimevsnumberofmatchesrabinkarp}{{8.8}{118}{Rabin-Karp algorithm: Input processing time vs number of matches for \ds {f}.\relax }{figure.caption.57}{}}
\@writefile{toc}{\contentsline {section}{\numberline {8.3}How does multithreading affect processing speed?}{118}{section.8.3}}
\newlabel{section-multithreading}{{8.3}{118}{How does multithreading affect processing speed?}{section.8.3}{}}
\@writefile{lot}{\contentsline {table}{\numberline {8.1}{\ignorespaces Thread counts used in the multithreading tests\relax }}{119}{table.caption.58}}
\newlabel{table-threadcounts}{{8.1}{119}{Thread counts used in the multithreading tests\relax }{table.caption.58}{}}
\@writefile{toc}{\contentsline {subsection}{\numberline {8.3.1}Horspool}{120}{subsection.8.3.1}}
\newlabel{subsection-multithreadinghorspool}{{8.3.1}{120}{Horspool}{subsection.8.3.1}{}}
\@writefile{lof}{\contentsline {figure}{\numberline {8.9}{\ignorespaces Horspool algorithm: Input processing time vs number of inputs for \hyperref  [section-datasetd]{\textit  {Dataset \uppercase {d}}}\xspace  .\relax }}{120}{figure.caption.59}}
\newlabel{figure-meanprocessingtimevsnumberofthreadshorspool}{{8.9}{120}{Horspool algorithm: Input processing time vs number of inputs for \ds {d}.\relax }{figure.caption.59}{}}
\@writefile{toc}{\contentsline {subsection}{\numberline {8.3.2}Quick Search}{121}{subsection.8.3.2}}
\newlabel{subsection-multithreadingquicksearch}{{8.3.2}{121}{Quick Search}{subsection.8.3.2}{}}
\@writefile{lof}{\contentsline {figure}{\numberline {8.10}{\ignorespaces Quick Search algorithm: Input processing time vs number of inputs for \hyperref  [section-datasetd]{\textit  {Dataset \uppercase {d}}}\xspace  .\relax }}{121}{figure.caption.60}}
\newlabel{figure-meanprocessingtimevsnumberofthreadsquicksearch}{{8.10}{121}{Quick Search algorithm: Input processing time vs number of inputs for \ds {d}.\relax }{figure.caption.60}{}}
\@writefile{toc}{\contentsline {subsection}{\numberline {8.3.3}Not So Na\"ive}{122}{subsection.8.3.3}}
\newlabel{subsection-multithreadingnotsonaive}{{8.3.3}{122}{Not So Na\"ive}{subsection.8.3.3}{}}
\@writefile{lof}{\contentsline {figure}{\numberline {8.11}{\ignorespaces Not So Na{\"i}ve algorithm: Input processing time vs number of inputs for \hyperref  [section-datasetd]{\textit  {Dataset \uppercase {d}}}\xspace  .\relax }}{122}{figure.caption.61}}
\newlabel{figure-meanprocessingtimevsnumberofthreadsnotsonaive}{{8.11}{122}{Not So Na{\"i}ve algorithm: Input processing time vs number of inputs for \ds {d}.\relax }{figure.caption.61}{}}
\@writefile{toc}{\contentsline {subsection}{\numberline {8.3.4}Rabin-Karp}{123}{subsection.8.3.4}}
\newlabel{subsection-multithreadingrabinkarp}{{8.3.4}{123}{Rabin-Karp}{subsection.8.3.4}{}}
\@writefile{lof}{\contentsline {figure}{\numberline {8.12}{\ignorespaces Rabin-Karp algorithm: Input processing time vs number of inputs for \hyperref  [section-datasetd]{\textit  {Dataset \uppercase {d}}}\xspace  .\relax }}{124}{figure.caption.62}}
\newlabel{figure-meanprocessingtimevsnumberofthreadsrabinkarp}{{8.12}{124}{Rabin-Karp algorithm: Input processing time vs number of inputs for \ds {d}.\relax }{figure.caption.62}{}}
\@writefile{toc}{\contentsline {section}{\numberline {8.4}Summary}{124}{section.8.4}}
\newlabel{section-furtheralgorithmcomparisonsummary}{{8.4}{124}{Summary}{section.8.4}{}}
\@writefile{lot}{\contentsline {table}{\numberline {8.2}{\ignorespaces Algorithm rankings for each test.\relax }}{125}{table.caption.63}}
\newlabel{table-resultssummary}{{8.2}{125}{Algorithm rankings for each test.\relax }{table.caption.63}{}}
\citation{chaudhary2011}
\citation{faro2011}
\@writefile{toc}{\contentsline {chapter}{\numberline {9}Conclusion}{126}{chapter.9}}
\@writefile{lof}{\addvspace {10\p@ }}
\@writefile{lot}{\addvspace {10\p@ }}
\newlabel{chapter-conclusion}{{9}{126}{Conclusion}{chapter.9}{}}
\@writefile{toc}{\contentsline {section}{\numberline {9.1}Document Recap}{126}{section.9.1}}
\newlabel{section-documentrecap}{{9.1}{126}{Document Recap}{section.9.1}{}}
\@writefile{toc}{\contentsline {section}{\numberline {9.2}Research Objectives}{127}{section.9.2}}
\newlabel{section-researchobjectives}{{9.2}{127}{Research Objectives}{section.9.2}{}}
\@writefile{toc}{\contentsline {section}{\numberline {9.3}Future Work}{128}{section.9.3}}
\newlabel{section-futurework}{{9.3}{128}{Future Work}{section.9.3}{}}
\citation{charras2004}
\citation{faro2011}
\citation{thompson1968}
\citation{chaudhary2011}
\bibstyle{plainnat}
\bibdata{references}
\bibcite{abliz2011}{{1}{2011}{{Abliz}}{{}}}
\bibcite{abuhmed2007}{{2}{2007}{{AbuHmed et~al.}}{{AbuHmed, Mohaisen, and Nyang}}}
\bibcite{adeyinka2008}{{3}{2008}{{Adeyinka}}{{}}}
\bibcite{aho1990}{{4}{1990}{{Aho}}{{}}}
\bibcite{aho1974}{{5}{1974}{{Aho et~al.}}{{Aho, Hopcraft, and Ullman}}}
\bibcite{shaer2003}{{6}{2003}{{Al-Shaer and Hamed}}{{}}}
\bibcite{alshammar2011}{{7}{2011}{{Alshammari and Zincir-Heywood}}{{}}}
\bibcite{anderson1980}{{8}{1980}{{Anderson}}{{}}}
\bibcite{anthony2015}{{9}{2015}{{Anthony}}{{}}}
\@writefile{toc}{\contentsline {chapter}{\numberline {10}References}{131}{chapter.10}}
\@writefile{lof}{\addvspace {10\p@ }}
\@writefile{lot}{\addvspace {10\p@ }}
\bibcite{apostolico1991}{{10}{1991}{{Apostolico and Crochemore}}{{}}}
\bibcite{apostolico1986}{{11}{1986}{{Apostolico and Giancarlo}}{{}}}
\bibcite{aschenbrenner1986}{{12}{1986}{{Aschenbrenner}}{{}}}
\bibcite{ashoor2011}{{13}{2011}{{Ashoor and Gore}}{{}}}
\bibcite{avolio1999}{{14}{1999}{{Avolio}}{{}}}
\bibcite{bachman1894}{{15}{1894}{{Bachman}}{{}}}
\bibcite{baezayates1992}{{16}{1992}{{Baeza-Yates and Gonnet}}{{}}}
\bibcite{becchi2009}{{17}{2009}{{Becchi et~al.}}{{Becchi, Wiseman, and Crowley}}}
\bibcite{bemer1960}{{18}{1960}{{Bemer}}{{}}}
\bibcite{bendrath2011}{{19}{2011}{{Bendrath and Mueller}}{{}}}
\bibcite{bonfiglio2007}{{20}{2007}{{Bonfiglio et~al.}}{{Bonfiglio, Mellia, Meo, Rossi, and Tofanelli}}}
\bibcite{borman1999}{{21}{1999}{{Borman et~al.}}{{Borman, Deering, and Hinden}}}
\bibcite{boyer1977}{{22}{1977}{{Boyer and Moore}}{{}}}
\bibcite{bray1998}{{23}{1998}{{Bray et~al.}}{{Bray, Paoli, and Sperberg-McQueen}}}
\bibcite{breslauer1992}{{24}{1992}{{Breslauer}}{{}}}
\bibcite{callado2010}{{25}{2010}{{Callado et~al.}}{{Callado, Kelner, Sadok, Kamienski, and Fernandes}}}
\bibcite{chandola2009}{{26}{2009}{{Chandola et~al.}}{{Chandola, Banerjee, and Kumar}}}
\bibcite{charras2004}{{27}{2004}{{Charras and Lecroq}}{{}}}
\bibcite{chatel1996}{{28}{1996}{{Chatel}}{{}}}
\bibcite{chaudhary2011}{{29}{2011}{{Chaudhary and Sardana}}{{}}}
\bibcite{cheswick1990}{{30}{1990}{{Cheswick}}{{}}}
\bibcite{colussi1991}{{31}{1991}{{Colussi}}{{}}}
\bibcite{colussi1994}{{32}{1994}{{Colussi}}{{}}}
\bibcite{corbridge1991}{{33}{1991}{{Corbridge et~al.}}{{Corbridge, Henig, and Slater}}}
\bibcite{crochemore1996}{{34}{1996}{{Crochemore and Lecroq}}{{}}}
\bibcite{crochemore2002}{{35}{2002}{{Crochemore and Wojciech}}{{}}}
\bibcite{crochemore1994}{{36}{1994}{{Crochemore et~al.}}{{Crochemore, Czumaj, Gasieniec, Jarominek, Lecroq, Plandowski, and Rytter}}}
\bibcite{crockford2006}{{37}{2006}{{Crockford}}{{}}}
\bibcite{deering1998}{{38}{1998}{{Deering and Hinden}}{{}}}
\bibcite{denning1987}{{39}{1987}{{Denning}}{{}}}
\bibcite{denning1989}{{40}{1989}{{Denning}}{{}}}
\bibcite{dharmapurikar2003}{{41}{2003}{{Dharmapurikar et~al.}}{{Dharmapurikar, Krishnamurthy, Sproull, and Lockwood}}}
\bibcite{douligeris2004}{{42}{2004}{{Dougligeris and Mitrokotsa}}{{}}}
\bibcite{dowd1998}{{43}{1998}{{Dowd and McHenry}}{{}}}
\bibcite{egevang1994}{{44}{1994}{{Egevang and Francis}}{{}}}
\bibcite{eisenberg1989}{{45}{1989}{{Eisenberg et~al.}}{{Eisenberg, Gries, Hartmanis, Holcomb, and Lynn}}}
\bibcite{eisenmann2009}{{46}{2009}{{Eisenmann et~al.}}{{Eisenmann, Parker, and van Alstyne}}}
\bibcite{fan2009}{{47}{2009}{{Fan et~al.}}{{Fan, Yao, and Ma}}}
\bibcite{faro2009}{{48}{2009}{{Faro and Lecroq}}{{}}}
\bibcite{faro2011}{{49}{2011}{{Faro and Lecroq}}{{}}}
\bibcite{faro2013}{{50}{2013}{{Faro and Lecroq}}{{}}}
\bibcite{feng1987}{{51}{1987}{{Feng and Takaoka}}{{}}}
\bibcite{ferguson2000}{{52}{2000}{{Ferguson and Senie}}{{}}}
\bibcite{oxford2016}{{53}{1990}{{Fowler et~al.}}{{Fowler, Fowler, and Allen}}}
\bibcite{galil1992}{{54}{1992}{{Galil and Giancarlo}}{{}}}
\bibcite{gantz2014}{{55}{2014}{{Gantz et~al.}}{{Gantz, Florean, Lee, Lim, Sikdar, Lakshmi, Madhavan, and Nagappan}}}
\bibcite{garcia2008}{{56}{2008}{{Garcia}}{{}}}
\bibcite{gardner1989}{{57}{1989}{{Gardner}}{{}}}
\bibcite{ghosh1998}{{58}{1998}{{Ghosh et~al.}}{{Ghosh, Wanken, and Charron}}}
\bibcite{grondman2006}{{59}{2006}{{Grondman}}{{}}}
\bibcite{gupta2013}{{60}{2013}{{Gupta}}{{}}}
\bibcite{haertel2010}{{61}{2010}{{Haertel}}{{}}}
\bibcite{hancart1993}{{62}{1993}{{Hancart}}{{}}}
\bibcite{handley2001}{{63}{2001}{{Handley et~al.}}{{Handley, Paxson, and Kreibich}}}
\bibcite{hauben2006}{{64}{2006}{{Hauben and Hauben}}{{}}}
\bibcite{hibberd2012}{{65}{2012}{{Hibberd}}{{}}}
\bibcite{hoffman2013}{{66}{2013}{{Hoffman}}{{}}}
\bibcite{horspool1980}{{67}{1980}{{Horspool}}{{}}}
\bibcite{ihaka1996}{{68}{1996}{{Ihaka and Gentleman}}{{}}}
\bibcite{ingham2002}{{69}{2002}{{Ingham and Forrest}}{{}}}
\bibcite{jenkov2014}{{70}{2014}{{Jenkov}}{{}}}
\bibcite{jiang2009}{{71}{2009}{{Jiang and Prassana}}{{}}}
\bibcite{karp1987}{{72}{1987}{{Karp and Rabin}}{{}}}
\bibcite{kemmerer2002}{{73}{2002}{{Kemmerer and Vigna}}{{}}}
\bibcite{knuth1977}{{74}{1977}{{Knuth et~al.}}{{Knuth, Morris, and Pratt}}}
\bibcite{koblas1992}{{75}{1992}{{Koblas and Koblas}}{{}}}
\bibcite{kulekci2009}{{76}{2009}{{K\"ulekci}}{{}}}
\bibcite{kumar2006}{{77}{2006}{{Kumar et~al.}}{{Kumar, Turner, and Williams}}}
\bibcite{landau1909}{{78}{1909}{{Landau}}{{}}}
\bibcite{law2012}{{79}{2012}{{Law et~al.}}{{Law, Diab, Healy, Carlson, Maguire, Anslow, and Hajduczenia}}}
\bibcite{lecroq1995}{{80}{1995}{{Lecroq}}{{}}}
\bibcite{lecroq2007}{{81}{2007}{{Lecroq}}{{}}}
\bibcite{leiner2009}{{82}{2009}{{Leiner et~al.}}{{Leiner, Cerf, Clark, Kah, Kleinrock, Lynch, Postel, Roberts, and Wolff}}}
\bibcite{lilly2009}{{83}{2009}{{Lilly}}{{}}}
\bibcite{metcalf2014}{{84}{2014}{{Metcalf}}{{}}}
\bibcite{mogul1989}{{85}{1989}{{Mogul}}{{}}}
\bibcite{moore2005}{{86}{2005}{{Moore and Papagiannaki}}{{}}}
\bibcite{moore1965}{{87}{1965}{{Moore}}{{}}}
\bibcite{morris1970}{{88}{1970}{{Morris and Pratt}}{{}}}
\bibcite{mueller2012}{{89}{2012}{{Mueller and Asghari}}{{}}}
\bibcite{necker2002}{{90}{2002}{{Necker et~al.}}{{Necker, Contis, and Schimmel}}}
\bibcite{needham1993}{{91}{1993}{{Needham}}{{}}}
\bibcite{neilsen1998}{{92}{1998}{{Neilsen}}{{}}}
\bibcite{arbor2011}{{93}{2011}{{Networks}}{{}}}
\bibcite{paloalto2016}{{94}{2016}{{Networks}}{{}}}
\bibcite{parsons2009}{{95}{2009}{{Parsons}}{{}}}
\bibcite{parsons2012}{{96}{2012}{{Parsons}}{{}}}
\bibcite{perrin2008}{{97}{2008}{{Perrin}}{{}}}
\bibcite{pike1993}{{98}{1993}{{Pike and Thompson}}{{}}}
\bibcite{postel1981}{{99}{1981}{{Postel}}{{}}}
\bibcite{raita1991}{{100}{1991}{{Raita}}{{}}}
\bibcite{ramirez1999}{{101}{1999}{{Ramirez}}{{}}}
\bibcite{ranum1992}{{102}{1992}{{Ranum}}{{}}}
\bibcite{rouse2011}{{103}{2011}{{Rouse}}{{}}}
\bibcite{schuff2007}{{104}{2007}{{Schuff and Pai}}{{}}}
\bibcite{shah2001}{{105}{2001}{{Shah}}{{}}}
\bibcite{shankar2003}{{106}{2003}{{Shankar and Paxon}}{{}}}
\bibcite{simon1994}{{107}{1994}{{Simon}}{{}}}
\bibcite{smith1991}{{108}{1991}{{Smith}}{{}}}
\bibcite{smith1994}{{109}{1994}{{Smith}}{{}}}
\bibcite{sourdis2007}{{110}{2007}{{Sourdis}}{{}}}
\bibcite{spafford1989a}{{111}{1989{a}}{{Spafford}}{{}}}
\bibcite{spafford1989b}{{112}{1989{b}}{{Spafford}}{{}}}
\bibcite{srikantha2010}{{113}{2010}{{Srikantha et~al.}}{{Srikantha, Bopardikar, Kaipa, Venkataraman, Lee, Ahn, and Narayanan}}}
\bibcite{stephen1994}{{114}{1994}{{Stephen}}{{}}}
\bibcite{stoll1989}{{115}{1989}{{Stoll}}{{}}}
\bibcite{sunday1990}{{116}{1990}{{Sunday}}{{}}}
\bibcite{thompson1968}{{117}{1968}{{Thompson}}{{}}}
\bibcite{thompson1975}{{118}{1975}{{Thompson and Ritchie}}{{}}}
\bibcite{thomson2003}{{119}{2003}{{Thomson et~al.}}{{Thomson, Huitema, Ksinant, and Souissi}}}
\bibcite{quink2009}{{120}{2009}{{/u/quink}}{{}}}
\bibcite{splunder2015}{{121}{2015}{{van Splunder}}{{}}}
\bibcite{ward2001}{{122}{2001}{{Ward}}{{}}}
\bibcite{wickham2011}{{123}{2011}{{Wickham}}{{}}}
\bibcite{wu1992}{{124}{1992}{{Wu and Manber}}{{}}}
\bibcite{wuermeling1989}{{125}{1989}{{Wuermeling}}{{}}}
\bibcite{yang2010}{{126}{2010}{{Yang et~al.}}{{Yang, Liao, Luo, Wang, and Yeh}}}
\bibcite{yu2006}{{127}{2006}{{Yu et~al.}}{{Yu, Chen, Diao, Lakshman, and Katz}}}
\bibcite{zwicky2000}{{128}{2000}{{Zwicky et~al.}}{{Zwicky, Cooper, and Chapman}}}
\citation{quink2009}
\citation{quink2009}
\citation{quink2009}
\@writefile{toc}{\contentsline {chapter}{Appendix \numberline {A}}{142}{Appendix.1.A}}
\@writefile{lof}{\addvspace {10\p@ }}
\@writefile{lot}{\addvspace {10\p@ }}
\newlabel{appendices-a}{{A}{142}{}{Appendix.1.A}{}}
\@writefile{lof}{\contentsline {figure}{\numberline {A.1}{\ignorespaces If ISPs did not respect Net Neutrality}}{143}{figure.caption.64}}
\newlabel{figure-ispnetneutrality}{{A.1}{143}{If ISPs did not respect Net Neutrality}{figure.caption.64}{}}
\@writefile{toc}{\contentsline {chapter}{Appendix \numberline {B}}{144}{Appendix.1.B}}
\@writefile{lof}{\addvspace {10\p@ }}
\@writefile{lot}{\addvspace {10\p@ }}
\newlabel{appendices-b}{{B}{144}{}{Appendix.1.B}{}}
\newlabel{listing-makingdatasets}{{B.1}{144}{Example code for editing and creating PCAP files with Python and Scapy}{lstlisting.1.B.1}{}}
\@writefile{lol}{\contentsline {lstlisting}{\numberline {B.1}Example code for editing and creating PCAP files with Python and Scapy}{144}{lstlisting.1.B.1}}
\providecommand\@xdylanguage[2]{}
\@xdylanguage{main}{english}
\providecommand\@gls@codepage[2]{}
\@gls@codepage{main}{}
